HPM R learners - Summer 2020
…
# base contains a bunch of stuff that ggplot uses to make the graph
# for example, the actual data and labels for those data
base$data

## # A tibble: 53,940 x 12
##    carat cut   color clarity depth table price     x     y     z predicted
##    <dbl> <ord> <ord> <ord>   <dbl> <dbl> <int> <dbl> <dbl> <dbl>     <dbl>
##  1 0.23  Ideal E     SI2      61.5    55   326  3.95  3.98  2.43      43.0
##  2 0.21  Prem~ E     SI1      59.8    61   326  3.89  3.84  2.31     -62.7
##  3 0.23  Good  E     VS1      56.9    65   327  4.05  4.07  2.31      38.7
##  4 0.290 Prem~ I     VS2      62.4    58   334  4.2   4.23  2.63     362. 
##  5 0.31  Good  J     SI2      63.3    58   335  4.34  4.35  2.75     394. 
##  6 0.24  Very~ J     VVS2     62.8    57   336  3.94  3.96  2.48     122. 
##  7 0.24  Very~ I     VVS1     62.3    57   336  3.95  3.98  2.47     122. 
##  8 0.26  Very~ H     SI1      61.9    55   337  4.07  4.11  2.53     208. 
##  9 0.22  Fair  E     VS2      65.1    61   337  3.87  3.78  2.49     -56.4
## 10 0.23  Very~ H     VS1      59.4    61   338  4     4.05  2.39      33.5
## # ... with 53,930 more rows, and 1 more variable: residuals <dbl>
…
